FFT	AudioTools 	v15.9.3 Ryan’s iPhone battery  63%	2022/10/07 12:49	Headset Microphone 1 High Range	4BBA602F-650B-4FF2-AD40-D0184933B660
Frequency	dB	Unweighted
19.5	56.7
19.8	56.8
20.1	57
20.3	57.2
20.6	57.4
20.9	57.8
21.2	57.9
21.6	58.2
21.9	58.3
22.2	58.4
22.5	58.9
22.8	59.1
23.2	59.4
23.5	59.6
23.8	59.8
24.2	60.3
24.5	60.5
24.9	60.9
25.3	61
25.6	61.3
26	61.5
26.4	61.5
26.8	61.7
27.2	61.7
27.5	61.8
28	61.9
28.4	61.9
28.8	62.2
29.2	62.2
29.6	62.5
30	62.7
30.5	62.8
30.9	63.1
31.4	63.2
31.8	63.3
32.3	63.3
32.8	63.3
33.2	63.4
33.7	63.5
34.2	63.7
34.7	63.8
35.2	64.1
35.7	64.3
36.2	64.4
36.8	64.6
37.3	64.7
37.9	64.9
38.4	65
39	65.2
39.5	65.2
40.1	65.2
40.7	65.1
41.3	65.1
41.9	65.4
42.5	65.6
43.1	65.8
43.7	66.1
44.4	66.2
45	66.2
45.7	66.2
46.3	66.2
47	66.4
47.7	66.5
48.4	66.8
49.1	66.9
49.8	67
50.5	67.1
51.3	67.2
52	67.2
52.8	67.2
53.5	67.1
54.3	67
55.1	66.9
55.9	66.8
56.7	66.9
57.5	67.4
58.4	67.6
59.2	67.8
60.1	67.8
61	67.7
61.8	67.3
62.7	67.3
63.7	67.5
64.6	67.7
65.5	67.8
66.5	68
67.4	68.2
68.4	68.5
69.4	68.5
70.4	68.5
71.5	68.5
72.5	68.4
73.5	68.2
74.6	68.1
75.7	68.2
76.8	68.3
77.9	68.3
79.1	68.5
80.2	68.5
81.4	68.4
82.6	68.4
83.8	68.4
85	68.6
86.2	68.7
87.5	68.8
88.7	68.9
90	68.9
91.3	68.9
92.7	69.1
94	69.2
95.4	69.2
96.8	69.1
98.2	69.2
99.6	69.4
101	69.4
103	69.4
104	69.4
106	69.5
107	69.6
109	69.5
110	69.3
112	69.3
113	69.3
115	69.4
117	69.5
118	69.6
120	69.7
122	69.8
124	69.6
125	69.5
127	69.6
129	69.5
131	69.4
133	69.5
135	69.6
137	69.6
139	69.7
141	69.9
143	69.8
145	69.6
147	69.6
149	69.8
151	69.9
154	69.9
156	69.9
158	70.1
160	70.2
163	70.2
165	70.2
168	70.2
170	70.3
172	70.3
175	70.7
177	70.9
180	71.1
183	71.2
185	71.3
188	71.3
191	71.2
194	71.1
196	71.2
199	71.3
202	71.5
205	71.5
208	71.5
211	71.7
214	71.7
217	71.8
220	71.9
224	72.1
227	72.2
230	72.3
234	72.5
237	72.4
240	72.3
244	72.5
247	72.6
251	72.7
255	72.6
258	72.4
262	72.3
266	72.1
270	72.1
274	72.2
278	71.6
282	71.6
286	71.6
290	71.3
294	71
298	70.7
303	70.5
307	70.6
312	70.4
316	70.5
321	70.7
325	70.8
330	70.8
335	70.7
340	70.4
345	70.4
350	70.6
355	70.7
360	70.7
365	70.8
371	70.9
376	71
382	71
387	71
393	71.7
398	71.7
404	71.7
410	72.1
416	72.7
422	72.8
428	72.8
434	72.9
441	73
447	72.9
454	72.9
460	72.9
467	72.8
474	72.7
481	72.8
488	72.6
495	72.2
502	72.1
509	72.1
517	72.1
524	72
532	71.9
540	71.8
547	71.8
555	71.8
563	71.8
572	71.8
580	71.8
588	71.7
597	71.6
606	71.6
614	71.4
623	71.2
632	71.2
642	71.3
651	71.3
660	71.3
670	71.3
680	71.3
690	71.3
700	71.3
710	71.3
720	71.3
731	71.1
741	71.2
752	71.3
763	71.2
774	71.2
785	71.1
797	71.1
808	71
820	70.9
832	70.8
844	70.7
856	70.6
869	70.5
882	70.3
894	70.2
907	70
921	70
934	70.3
948	70.3
961	70.2
975	70.2
990	70.5
1004	70.4
1019	70.3
1033	70.3
1048	70.3
1064	70.3
1079	70.1
1095	70
1111	69.3
1127	69.2
1143	69.2
1160	69.6
1177	69.7
1194	69.8
1211	69.8
1229	69.8
1247	69.5
1265	69.5
1283	69.3
1302	69.3
1321	69.5
1340	69.4
1360	69.3
1379	69.3
1399	69.4
1420	69.4
1440	69.3
1461	69.2
1483	69.1
1504	69.1
1526	69
1548	69
1571	69
1594	69
1617	69
1640	68.9
1664	68.8
1688	68.7
1713	68.6
1738	68.6
1763	68.2
1789	68.1
1815	68.1
1841	67.9
1868	67.7
1895	67.6
1923	67.6
1951	67.6
1979	67.6
2008	67.6
2037	67.7
2067	67.8
2097	67.8
2127	67.8
2158	68
2190	68
2221	68.1
2254	68.1
2287	68.1
2320	68.3
2354	68.4
2388	68.4
2423	68.5
2458	68.5
2494	68.5
2530	68.5
2567	68.6
2604	68.7
2642	68.8
2680	68.9
2719	68.9
2759	69
2799	69.1
2840	69.1
2881	69.4
2923	69.5
2965	69.6
3008	69.7
3052	69.7
3097	70
3142	70
3187	70.1
3234	70.3
3281	70.5
3328	70.5
3377	70.6
3426	70.8
3476	71
3526	71.4
3578	71.5
3630	71.5
3682	71.7
3736	71.9
3790	71.9
3846	71.9
3901	71.9
3958	71.9
4016	71.8
4074	71.7
4133	71.5
4194	70.7
4255	70.4
4316	70.3
4379	70
4443	70
4508	69.9
4573	69.9
4640	69.9
4707	70.8
4776	70.9
4845	71
4916	71
4987	72
5060	72.2
5133	72.2
5208	72.1
5284	72.2
5360	72
5438	71.8
5518	71.7
5598	70.4
5679	70
5762	69.6
5846	69.3
5931	69.1
6017	68.5
6104	68.2
6193	67.9
6283	67.8
6375	67.3
6467	67
6561	66.6
6657	65.5
6754	65
6852	64.5
6952	64
7053	63.3
7155	62.6
7259	62.4
7365	61.9
7472	61.4
7581	61
7691	60.8
7803	60.7
7916	60.6
8032	60.6
8148	60.5
8267	60.7
8387	61
8509	61.2
8633	61.2
8758	61.5
8886	61.7
9015	62
9146	62.6
9279	63
9414	64.8
9551	65.5
9690	66.7
9831	67.5
9974	68.2
10119	69.9
10266	71.2
10416	73.5
10567	75
10721	76
10877	76
11035	75.3
11196	75.4
11358	74.8
11524	73.9
11691	73.1
11861	71.9
12034	71.6
12209	71.7
12386	71.4
12567	70.7
12749	69.3
12935	66.3
13123	64.4
13314	61.5
13507	59.6
13704	58
13903	56
14105	54.9
14311	53.3
14519	52.3
14730	51
14944	50.5
15162	50
15382	49.6
15606	49.5
15833	49.8
16063	50.2
16297	50.8
16534	52.4
16774	53.8
17018	56.5
17266	57.1
17517	55.9
17772	54.1
18030	51.9
18293	48.9
18559	47.2
18829	43.5
19102	42.5
19380	41.6
20000	41.1
overall dB	93.3 dB
decay	Average
averaging	1/24 Octave
source	Headset Microphone 1 High Range
latitude	38.561
longitude	-121.761
saved	2022/10/07 12:49
peak	68.8Hz
